{
  "project_info": {
    "project_number": "234022255756",
    "project_id": "vote-fbf45",
    "storage_bucket": "vote-fbf45.appspot.com"
  },
  "client": [
    {
      "client_info": {
        "mobilesdk_app_id": "1:234022255756:android:d91111373b09a3f5e90fa9",
        "android_client_info": {
          "package_name": "org.peoplecount.votingmonitoring"
        }
      },
      "oauth_client": [
        {
          "client_id": "234022255756-b3lvk8fc3u4s0hc0kfu7trh1e525odrg.apps.googleusercontent.com",
          "client_type": 3
        }
      ],
      "api_key": [
        {
          "current_key": "AIzaSyDwTxMa4jMk1UzuqDC7hqgUBpHX1kmKodE"
        }
      ],
      "services": {
        "appinvite_service": {
          "other_platform_oauth_client": [
            {
              "client_id": "234022255756-b3lvk8fc3u4s0hc0kfu7trh1e525odrg.apps.googleusercontent.com",
              "client_type": 3
            }
          ]
        }
      }
    }
  ],
  "configuration_version": "1"
}